{
    "Version": "2012-10-17",
    "Statement": [
        {
            "Effect": "Allow",
            "Action": [
                "ssm:*"
            ],
            "Resource": [
                "arn:aws:ssm:us-west-2:109460623949:parameter/one-yml/production/*"
            ]
        }
    ]
}
